…
Outputs written under: C:/ReposGitHub/capacity_utilization/output/Reports_tsDyn 
=== 30_report_tsdyn complete ===
# A tibble: 45 × 15
   window spec  basis det_tag           p_PIC r_PIC PIC_min deltaPIC_2nd p_BIC r_BIC BIC_min deltaBIC_2nd common_p_max
   <ord>  <chr> <chr> <chr>             <int> <int>   <dbl>        <dbl> <int> <int>   <dbl>        <dbl>        <int>
 1 full   Q1    raw   SR_const__LR_none     1     1  -1083.         37.6     1     1  -1112.         18.7            7
 2 full   Q1    raw   SR_none__LR_const     1     1  -1092.         39.1     1     1  -1113.         17.8            7
 3 full   Q1    raw   SR_none__LR_none      1     1  -1096.         48.1     1     1  -1115.         29.2            7
 4 full   Q2    ortho SR_const__LR_none     1     1  -1590.         42.4     1     1  -1626.         18.7            6
 5 full   Q2    ortho SR_none__LR_const     1     1  -1603.         46.3     1     1  -1629.         20.3            6
 6 full   Q2    ortho SR_none__LR_none      1     1  -1610.         42.8     1     1  -1633.         19.1            6
 7 full   Q2    raw   SR_const__LR_none     1     1  -1595.         42.4     1     1  -1630.         18.7            6
 8 full   Q2    raw   SR_none__LR_const     1     1  -1607.         46.3     1     1  -1633.         20.3            6
 9 full   Q2    raw   SR_none__LR_none      1     1  -1614.         42.8     1     1  -1638.         19.1            6
10 full   Q3    ortho SR_const__LR_none     1     1  -1801.         50.4     1     1  -1844.         22.0            4
# ℹ 35 more rows
# ℹ 2 more variables: computed_share <dbl>, total <dbl>
# ℹ Use `print(n = ...)` to see more rows
…
