…
--- PHASE 5: Writing report ---
Report written to: C:/ReposGitHub/capacity_utilization/output/CriticalReplication/S0_faithful/S0_agent_report.md 

=== GRID SEARCH COMPLETE ===
Finished: 2026-03-13 16:37:50 
Status: PARTIAL 
# A tibble: 66 × 44
    year VAcorp NOScorp Pcorpnipa NMINT KGCcorp INVcorp KTCcorp  Rcorp
   <int>  <dbl>   <dbl>     <dbl> <dbl>   <dbl>   <dbl>   <dbl>  <dbl>
 1  1946    NA     NA        NA   NA        NA     20.7    173. NA    
 2  1947   119.    24.9      22.5  2.4     171.    25.2    196.  0.685
 3  1948   136     32.1      29.6  2.5     192.    28.8    220.  0.695
 4  1949   132.    30.2      27.6  2.7     201.    28.5    229.  0.601
 5  1950   151.    37.2      34.4  2.8     230.    35.7    266.  0.657
 6  1951   173.    42.5      39.1  3.5     256.    42.2    298.  0.650
 7  1952   181.    40.6      37    3.7     277.    44.2    321.  0.607
 8  1953   194.    41.1      37.3  3.80    297.    46.1    343.  0.603
 9  1954   190.    40.3      36.4  4       311.    46.0    357.  0.556
10  1955   216.    51.3      46.6  4.70    348.    52.8    401.  0.604
# ℹ 56 more rows
# ℹ 35 more variables: Profshcorp <dbl>, rcorp <dbl>, VAcorpnipa <dbl>,
#   KNCcorpbea <dbl>, Rcorpnipa <dbl>, Profshcorpnipa <dbl>,
#   rcorpnipa <dbl>, u_shaikh <dbl>, uFRB <dbl>, Rcorpn <dbl>,
#   Profshcorpn <dbl>, rcorpn <dbl>, IGCcorpbea <dbl>, DEPCcorp <dbl>,
#   pIGcorpbea <dbl>, GOSRcorp <dbl>, ECcorp <dbl>, WEQ2 <dbl>,
#   VAcorp_check <dbl>, Pcorp <dbl>, rcorp_sectoral <dbl>, …
# ℹ Use `print(n = ...)` to see more rows
