…
> post_part <- theta_post |>
+     dplyr::select(year, regime_code, theta_r1, theta_r2, theta_active) |>
+     dplyr::left_join(ect_post, by = "year") |>
+     dplyr::mutate(true_sample = "POST1974")
> post_part 
# A tibble: 36 × 7
    year regime_code   theta_r1 theta_r2 theta_active   ECT true_sample
   <dbl> <chr>            <dbl>    <dbl>        <dbl> <dbl> <chr>      
 1  1975 low_ect_side      1.16     1.26         1.16 -6.97 POST1974   
 2  1976 low_ect_side      1.16     1.26         1.16 -7.02 POST1974   
 3  1977 low_ect_side      1.15     1.26         1.15 -6.85 POST1974   
 4  1978 low_ect_side      1.16     1.25         1.16 -6.76 POST1974   
 5  1979 high_ect_side     1.16     1.25         1.25 -6.71 POST1974   
 6  1980 high_ect_side     1.16     1.25         1.25 -6.59 POST1974   
 7  1981 high_ect_side     1.15     1.25         1.25 -6.31 POST1974   
 8  1982 high_ect_side     1.14     1.25         1.25 -6.62 POST1974   
 9  1983 high_ect_side     1.14     1.25         1.25 -6.88 POST1974   
10  1984 low_ect_side      1.15     1.25         1.15 -6.75 POST1974   
# ℹ 26 more rows
# ℹ Use print(n = ...) to see more rows
…
